{
	"info": {
		"_postman_id": "0ca6976a-915b-410d-a8bc-6bb45a67d6ae",
		"name": "New Collection",
		"schema": "https://schema.getpostman.com/json/collection/v2.1.0/collection.json",
		"_uid": "10585-0ca6976a-915b-410d-a8bc-6bb45a67d6ae"
	},
	"item": []
}